<?xml version="1.0" standalone="no"?>
<!DOCTYPE svg PUBLIC "-//W3C//DTD SVG 1.1//EN" "http://www.w3.org/Graphics/SVG/1.1/DTD/svg11.dtd" >
<svg xmlns="http://www.w3.org/2000/svg">
<metadata>Generated by IcoMoon</metadata>
<defs>
<font id="iconmoo" horiz-adv-x="1024">
<font-face units-per-em="1024" ascent="960" descent="-64" />
<missing-glyph horiz-adv-x="1024" />
<glyph unicode="&#x20;" horiz-adv-x="512" d="" />
<glyph unicode="&#xe900;" glyph-name="1" d="M353.28 215.893v0c-10.24 6.827-22.187 3.413-29.013-5.12-5.12-8.533-3.413-22.187 6.827-27.307h1.707c3.413-1.707 6.827-3.413 10.24-3.413 6.827 0 13.653 3.413 17.067 8.533 5.12 10.24 1.707 22.187-6.827 27.307zM1003.52 420.693c-5.12 0-51.2 0-124.587-8.533-3.413 76.8-30.72 150.187-80.213 209.92-51.2 63.147-122.88 109.227-201.387 128-10.24 3.413-22.187-3.413-23.893-15.36-3.413-10.24 3.413-22.187 15.36-23.893 143.36-34.133 244.053-158.72 250.88-305.493-95.573-11.947-221.867-35.84-351.573-83.627-1.707 0-1.707 0-3.413-1.707-46.080 22.187-93.867 40.96-145.067 56.32-56.32 17.067-109.227 27.307-155.307 34.133 8.533 143.36 109.227 266.24 249.173 298.667 10.24 3.413 17.067 13.653 15.36 23.893-3.413 10.24-13.653 17.067-23.893 15.36-157.013-34.133-269.653-170.667-279.893-329.387-73.387 8.533-122.88 5.12-126.293 5.12-10.24-1.707-18.773-10.24-18.773-20.48v-447.147c0-11.947 8.533-20.48 20.48-20.48h983.040c10.24 0 20.48 8.533 20.48 20.48v443.733c0 5.12-1.707 10.24-5.12 13.653-5.12 3.413-10.24 6.827-15.36 6.827zM40.96-24.747v194.56c18.773-8.533 47.787-22.187 78.507-40.96 46.080-29.013 109.227-78.507 158.72-151.893h-237.227zM599.040-24.747c-52.907 78.507-117.76 146.773-192.853 203.093-8.533 6.827-22.187 5.12-27.307-3.413-6.827-8.533-5.12-22.187 3.413-27.307 64.853-47.787 121.173-105.813 167.253-170.667h-225.28c-54.613 92.16-129.707 151.893-186.027 186.027-42.667 27.307-80.213 42.667-98.987 49.493v87.040c39.253-6.827 129.707-29.013 230.4-81.92 3.413-1.707 6.827-1.707 8.533-1.707 6.827 0 13.653 3.413 17.067 10.24 5.12 10.24 1.707 22.187-8.533 27.307-112.64 59.733-209.92 80.213-247.467 87.040v42.667c44.373 0 158.72-3.413 290.133-44.373 211.627-64.853 372.053-186.027 476.16-363.52h-206.507zM983.040-24.747h-131.413c-17.067 32.427-37.547 63.147-58.027 90.453 81.92 37.547 155.307 47.787 189.44 49.493v-139.947zM984.747 157.867c-37.547-1.707-121.173-11.947-215.040-58.027-23.893 29.013-47.787 56.32-75.093 80.213 143.36 59.733 256 68.267 290.133 69.973v-92.16zM984.747 289.28c-39.253 0-163.84-8.533-322.56-80.213-13.653 11.947-29.013 23.893-44.373 34.133-25.6 18.773-52.907 35.84-81.92 52.907 196.267 68.267 389.12 80.213 450.56 81.92l-1.707-88.747zM512 721.067v0c11.947 0 20.48 8.533 20.48 20.48 0 10.24-8.533 20.48-20.48 20.48v0c-10.24 0-20.48-8.533-20.48-20.48 0-10.24 10.24-20.48 20.48-20.48zM512 789.333c10.24 0 20.48 8.533 20.48 20.48v129.707c0 11.947-10.24 20.48-20.48 20.48s-20.48-8.533-20.48-20.48v-129.707c0-11.947 10.24-20.48 20.48-20.48zM805.547 668.16c5.12 0 10.24 1.707 13.653 5.12l88.747 88.747c8.533 8.533 8.533 20.48 0 29.013s-20.48 8.533-29.013 0l-88.747-88.747c-8.533-8.533-8.533-20.48 0-29.013 5.12-3.413 10.24-5.12 15.36-5.12zM334.507 770.56c3.413-8.533 10.24-11.947 18.773-11.947 1.707 0 5.12 0 6.827 1.707 10.24 3.413 15.36 15.36 10.24 25.6l-46.080 116.053c-3.413 10.24-15.36 15.36-25.6 10.24-10.24-3.413-15.36-15.36-10.24-25.6l46.080-116.053zM663.893 760.32c1.707-1.707 5.12-1.707 6.827-1.707 8.533 0 15.36 5.12 18.773 11.947l47.787 116.053c3.413 10.24 0 22.187-10.24 25.6s-22.187 0-25.6-10.24l-47.787-116.053c-5.12-10.24 0-22.187 10.24-25.6zM11.947 579.413l107.52-44.373c3.413-1.707 5.12-1.707 8.533-1.707 8.533 0 15.36 5.12 18.773 11.947 3.413 10.24 0 22.187-10.24 25.6l-107.52 44.373c-10.24 3.413-22.187 0-25.6-10.24-6.827-10.24-1.707-22.187 8.533-25.6zM877.227 545.28c3.413-8.533 10.24-11.947 18.773-11.947 1.707 0 5.12 0 6.827 1.707l107.52 44.373c10.24 3.413 15.36 15.36 10.24 25.6-3.413 10.24-15.36 15.36-25.6 10.24l-107.52-44.373c-8.533-3.413-13.653-15.36-10.24-25.6zM203.093 673.28c3.413-3.413 8.533-5.12 13.653-5.12s10.24 1.707 13.653 5.12c8.533 8.533 8.533 20.48 0 29.013l-87.040 88.747c-6.827 6.827-20.48 6.827-27.307 0-8.533-8.533-8.533-20.48 0-29.013l87.040-88.747z" />
<glyph unicode="&#xe901;" glyph-name="2" d="M128 280c-11.2 0-20.8-9.6-20.8-19.2v0c0-11.2 9.6-20.8 20.8-20.8s20.8 9.6 20.8 19.2v0c-1.6 12.8-9.6 20.8-20.8 20.8zM1001.6 332.8c-25.6 25.6-67.2 30.4-99.2 9.6 0 0-1.6 0-1.6-1.6l-51.2-44.8c-64 83.2-160 134.4-264 140.8v139.2c41.6 1.6 132.8 14.4 187.2 75.2 64 72 52.8 188.8 49.6 211.2 0 4.8-3.2 9.6-6.4 14.4-8 8-20.8 6.4-28.8-1.6 0 0-33.6-35.2-128-67.2-43.2-14.4-75.2-46.4-94.4-94.4-19.2 48-51.2 80-94.4 94.4-94.4 32-128 67.2-128 67.2-8 8-19.2 9.6-28.8 1.6-4.8-3.2-6.4-8-6.4-14.4-3.2-22.4-16-139.2 49.6-211.2 54.4-60.8 147.2-72 187.2-75.2v-137.6c-54.4-3.2-108.8-19.2-156.8-46.4l-3.2 3.2c-22.4 22.4-52.8 35.2-84.8 35.2h-152v11.2c0 11.2-9.6 19.2-20.8 19.2h-107.2c-11.2 0-19.2-9.6-19.2-19.2v-361.6c0-11.2 9.6-20.8 19.2-20.8h108.8c11.2 0 20.8 9.6 20.8 20.8v9.6l52.8-32c44.8-27.2 97.6-41.6 150.4-41.6h316.8c56 0 112 19.2 156.8 56 0 0 0 0 0 0l172.8 152c16 12.8 25.6 33.6 25.6 52.8 0 20.8-6.4 41.6-22.4 56zM672 768c54.4 17.6 89.6 38.4 113.6 52.8 1.6-38.4-4.8-102.4-41.6-144-43.2-48-121.6-59.2-156.8-60.8 1.6 40 14.4 128 84.8 152zM388.8 676.8c-38.4 41.6-43.2 105.6-41.6 144 20.8-14.4 57.6-33.6 112-52.8 72-24 84.8-112 86.4-153.6-36.8 3.2-113.6 12.8-156.8 62.4zM564.8 398.4c100.8 0 193.6-48 254.4-128l-51.2-43.2c-3.2 11.2-9.6 22.4-17.6 30.4-11.2 11.2-27.2 17.6-43.2 17.6h-185.6c-11.2 0-20.8 4.8-28.8 11.2l-73.6 75.2c44.8 24 94.4 36.8 145.6 36.8zM971.2 254.4c0 0 0 0 0 0l-174.4-152c-36.8-30.4-83.2-46.4-131.2-46.4h-315.2c-46.4 0-91.2 12.8-129.6 36.8l-73.6 44.8v54.4c0 11.2-9.6 19.2-20.8 19.2s-19.2-8-19.2-19.2v-92.8h-67.2v320h67.2v-88c0-11.2 9.6-19.2 20.8-19.2s20.8 9.6 20.8 19.2v57.6h153.6c20.8 0 41.6-8 56-24l105.6-107.2c14.4-14.4 35.2-24 56-24h187.2c4.8 0 9.6-1.6 14.4-6.4 9.6-9.6 9.6-24 6.4-33.6-1.6-3.2-1.6-4.8-3.2-6.4 0 0-4.8-4.8-9.6-4.8h-265.6c-14.4 0-27.2 3.2-38.4 11.2l-64 41.6c-9.6 6.4-22.4 3.2-27.2-6.4-6.4-9.6-3.2-22.4 6.4-27.2l64-41.6c17.6-11.2 38.4-17.6 60.8-17.6h265.6c14.4 0 27.2 4.8 36.8 16l174.4 148.8c14.4 9.6 33.6 8 46.4-4.8 6.4-6.4 9.6-16 9.6-25.6 0-8-4.8-16-12.8-22.4z" />
<glyph unicode="&#xe902;" glyph-name="3" d="M351.573 468.48c-59.733 0-107.52-47.787-107.52-107.52s47.787-107.52 107.52-107.52c59.733 0 107.52 47.787 107.52 107.52 1.707 58.027-47.787 107.52-107.52 107.52zM351.573 292.693c-37.547 0-68.267 30.72-68.267 68.267s30.72 68.267 68.267 68.267 68.267-30.72 68.267-68.267c0-39.253-30.72-68.267-68.267-68.267zM1008.64 615.253l-225.28 63.147v73.387c0 10.24-8.533 20.48-20.48 20.48h-8.533v80.213c1.707 22.187-17.067 39.253-37.547 39.253h-5.12c-10.24 0-20.48-8.533-20.48-20.48 0-10.24 8.533-20.48 20.48-20.48h5.12v-78.507h-8.533c-10.24 0-20.48-8.533-20.48-20.48v-46.080l-59.733 17.067-58.027 221.867c-3.413 8.533-10.24 15.36-20.48 15.36h-385.707c-10.24 0-20.48-8.533-20.48-20.48v-430.080c0-8.533 5.12-15.36 13.653-18.773s17.067 0 22.187 6.827c42.667 52.907 104.107 83.627 172.373 83.627 121.173 0 220.16-98.987 220.16-220.16 0-10.24 8.533-20.48 20.48-20.48h129.707c8.533 0 15.36 5.12 18.773 11.947l40.96 95.573h223.573c10.24 0 20.48 8.533 20.48 20.48v128c-1.707 8.533-6.827 15.36-17.067 18.773zM783.36 637.44l174.080-49.493h-174.080v49.493zM728.747 731.307h15.36v-143.36h-15.36v143.36zM563.2 811.52l22.187-81.92h-104.107l81.92 81.92zM354.987 920.747h179.2l17.067-64.853-119.467-119.467c-1.707-1.707-3.413-5.12-5.12-8.533h-35.84l61.44 61.44c8.533 8.533 8.533 20.48 0 29.013s-20.48 8.533-29.013 0l-69.973-69.973v172.373zM184.32 920.747h131.413v-192.853h-131.413v192.853zM984.747 487.253h-216.747c-8.533 0-15.36-5.12-18.773-11.947l-40.96-95.573h-97.28c-10.24 134.827-122.88 240.64-259.413 240.64-63.147 0-121.173-22.187-167.253-61.44v129.707h419.84c1.707 0 1.707-1.707 3.413-1.707l81.92-22.187v-97.28c0-10.24 8.533-20.48 20.48-20.48h274.773c0 0 0 0 0 0v-59.733zM880.64 355.84c-32.427 0-59.733-27.307-59.733-59.733s27.307-59.733 59.733-59.733c32.427 0 59.733 27.307 59.733 59.733s-27.307 59.733-59.733 59.733zM880.64 275.627c-10.24 0-20.48 8.533-20.48 20.48 0 10.24 8.533 20.48 20.48 20.48 10.24 0 20.48-8.533 20.48-20.48-1.707-11.947-10.24-20.48-20.48-20.48zM1020.587 263.68c1.707 10.24 3.413 20.48 3.413 32.427 0 10.24-1.707 22.187-3.413 32.427-1.707 8.533-10.24 15.36-18.773 15.36 0 1.707-1.707 3.413-1.707 5.12 6.827 6.827 6.827 17.067 1.707 23.893-11.947 18.773-27.307 34.133-46.080 46.080-6.827 5.12-17.067 3.413-23.893-1.707-1.707 0-3.413 1.707-5.12 1.707 0 8.533-6.827 17.067-15.36 18.773-20.48 5.12-42.667 5.12-64.853 0-8.533-1.707-15.36-10.24-15.36-18.773-1.707 0-3.413-1.707-5.12-1.707-6.827 6.827-17.067 6.827-23.893 1.707-18.773-11.947-34.133-27.307-46.080-46.080-5.12-6.827-3.413-17.067 1.707-23.893 0-1.707-1.707-3.413-1.707-5.12-8.533 0-17.067-6.827-18.773-15.36-1.707-10.24-3.413-20.48-3.413-32.427 0-10.24 1.707-22.187 3.413-32.427 1.707-8.533 10.24-15.36 18.773-15.36 0-1.707 1.707-3.413 1.707-5.12-6.827-6.827-6.827-17.067-1.707-23.893 6.827-10.24 13.653-18.773 22.187-27.307h-303.787c20.48 15.36 39.253 35.84 52.907 58.027 5.12 8.533 3.413 18.773-3.413 25.6l-3.413 3.413c3.413 6.827 5.12 13.653 8.533 20.48h5.12c8.533 0 17.067 6.827 18.773 15.36 3.413 15.36 5.12 30.72 5.12 46.080s-1.707 30.72-5.12 46.080c-1.707 8.533-10.24 15.36-18.773 15.36h-5.12c-1.707 6.827-5.12 13.653-8.533 20.48l3.413 3.413c6.827 6.827 8.533 17.067 3.413 25.6-17.067 25.6-39.253 49.493-64.853 64.853-8.533 5.12-18.773 3.413-25.6-3.413l-3.413-3.413c-6.827 3.413-13.653 5.12-20.48 8.533v5.12c0 8.533-6.827 17.067-15.36 18.773-30.72 6.827-63.147 6.827-92.16 0-8.533-1.707-15.36-10.24-15.36-18.773v-5.12c-6.827-1.707-13.653-5.12-20.48-8.533l-3.413 3.413c-6.827 6.827-17.067 8.533-25.6 3.413-25.6-17.067-49.493-39.253-64.853-64.853-5.12-8.533-3.413-18.773 3.413-25.6l3.413-3.413c-3.413-6.827-5.12-13.653-8.533-20.48h-5.12c-8.533 0-17.067-6.827-18.773-15.36-3.413-15.36-5.12-30.72-5.12-46.080s1.707-30.72 5.12-46.080c1.707-8.533 10.24-15.36 18.773-15.36h5.12c1.707-6.827 5.12-13.653 8.533-20.48l-3.413-3.413c-6.827-6.827-8.533-17.067-3.413-25.6 13.653-22.187 32.427-42.667 52.907-58.027h-22.187c-10.24 0-20.48-8.533-20.48-20.48 0-10.24 8.533-20.48 20.48-20.48h797.013c10.24 0 20.48 8.533 20.48 20.48 0 10.24-8.533 20.48-20.48 20.48h-23.893c8.533 8.533 15.36 17.067 22.187 27.307 5.12 6.827 3.413 17.067-1.707 23.893 0 1.707 1.707 3.413 1.707 5.12 8.533 0 17.067 6.827 18.773 15.36zM453.973 226.133l-3.413 3.413c-6.827 6.827-17.067 8.533-23.893 3.413-11.947-6.827-25.6-11.947-37.547-15.36-8.533-1.707-15.36-10.24-15.36-18.773v-3.413c-15.36-1.707-29.013-1.707-44.373 0v3.413c0 8.533-6.827 17.067-15.36 18.773-13.653 3.413-25.6 8.533-37.547 15.36-8.533 5.12-17.067 3.413-23.893-3.413l-3.413-3.413c-11.947 8.533-22.187 18.773-30.72 30.72l3.413 3.413c6.827 6.827 8.533 17.067 3.413 23.893-6.827 11.947-11.947 25.6-15.36 37.547-1.707 8.533-10.24 15.36-18.773 15.36h-3.413c-1.707 6.827-1.707 15.36-1.707 22.187s0 15.36 1.707 22.187h3.413c8.533 0 17.067 6.827 18.773 15.36 3.413 13.653 8.533 25.6 15.36 37.547 5.12 8.533 3.413 17.067-3.413 23.893l-3.413 3.413c8.533 11.947 18.773 22.187 30.72 30.72l3.413-3.413c6.827-6.827 17.067-8.533 23.893-3.413 11.947 6.827 25.6 11.947 37.547 15.36 8.533 1.707 15.36 10.24 15.36 18.773v3.413c15.36 1.707 29.013 1.707 44.373 0v-3.413c0-8.533 6.827-17.067 15.36-18.773 13.653-3.413 25.6-8.533 37.547-15.36 8.533-5.12 17.067-3.413 23.893 3.413l3.413 3.413c11.947-8.533 22.187-18.773 30.72-30.72l-3.413-3.413c-6.827-6.827-8.533-17.067-3.413-23.893 6.827-11.947 11.947-25.6 15.36-37.547 1.707-8.533 10.24-15.36 18.773-15.36h3.413c1.707-6.827 1.707-15.36 1.707-22.187s0-15.36-1.707-22.187h-3.413c-8.533 0-17.067-6.827-18.773-15.36-3.413-13.653-8.533-25.6-15.36-37.547-5.12-8.533-3.413-17.067 3.413-23.893l3.413-3.413c-8.533-10.24-18.773-20.48-30.72-30.72zM983.040 287.573c-6.827-1.707-13.653-6.827-15.36-15.36s-5.12-15.36-10.24-23.893c-3.413-6.827-3.413-15.36 0-22.187-3.413-3.413-6.827-8.533-11.947-11.947-6.827 5.12-15.36 5.12-22.187 0s-15.36-6.827-23.893-10.24c-6.827-1.707-13.653-8.533-15.36-15.36-5.12 0-10.24 0-15.36 0-1.707 6.827-6.827 13.653-15.36 15.36s-15.36 5.12-23.893 10.24c-6.827 3.413-15.36 3.413-22.187 0-3.413 3.413-8.533 6.827-11.947 11.947 5.12 6.827 5.12 15.36 0 22.187s-6.827 15.36-10.24 23.893c-1.707 6.827-8.533 13.653-15.36 15.36 0 3.413 0 5.12 0 8.533s0 5.12 0 8.533c6.827 1.707 13.653 6.827 15.36 15.36s5.12 15.36 10.24 23.893c3.413 6.827 3.413 15.36 0 22.187 3.413 3.413 6.827 8.533 11.947 11.947 6.827-5.12 15.36-5.12 22.187 0s15.36 6.827 23.893 10.24c6.827 1.707 13.653 8.533 15.36 15.36 5.12 0 10.24 0 15.36 0 1.707-6.827 6.827-13.653 15.36-15.36s15.36-5.12 23.893-10.24c6.827-3.413 15.36-3.413 22.187 0 3.413-3.413 8.533-6.827 11.947-11.947-5.12-6.827-5.12-15.36 0-22.187s6.827-15.36 10.24-23.893c1.707-6.827 8.533-13.653 15.36-15.36 0-3.413 0-5.12 0-8.533 1.707-3.413 1.707-5.12 0-8.533zM1003.52 84.48h-267.947c-10.24 0-20.48-8.533-20.48-20.48 0-10.24 8.533-20.48 20.48-20.48h267.947c10.24 0 20.48 8.533 20.48 20.48 0 10.24-8.533 20.48-20.48 20.48zM667.307 43.52c10.24 0 20.48 8.533 20.48 20.48 0 10.24-8.533 20.48-20.48 20.48v0c-10.24 0-20.48-8.533-20.48-20.48 0-10.24 8.533-20.48 20.48-20.48v0zM20.48 43.52h578.56c10.24 0 20.48 8.533 20.48 20.48 0 10.24-8.533 20.48-20.48 20.48h-578.56c-10.24 0-20.48-8.533-20.48-20.48 0-10.24 8.533-20.48 20.48-20.48zM216.747-24.747h-196.267c-10.24 0-20.48-8.533-20.48-20.48 0-10.24 8.533-18.773 20.48-18.773h196.267c10.24 0 20.48 8.533 20.48 20.48-1.707 10.24-10.24 18.773-20.48 18.773zM285.013-24.747v0c-11.947 0-20.48-8.533-20.48-20.48 0-10.24 8.533-20.48 20.48-20.48v0c10.24 0 20.48 8.533 20.48 20.48s-8.533 20.48-20.48 20.48zM1003.52-24.747h-650.24c-10.24 0-20.48-8.533-20.48-20.48 0-10.24 8.533-20.48 20.48-20.48h650.24c10.24 0 20.48 8.533 20.48 20.48s-8.533 20.48-20.48 20.48zM20.48 152.747h49.493c10.24 0 20.48 8.533 20.48 20.48 0 10.24-8.533 20.48-20.48 20.48h-49.493c-11.947-1.707-20.48-10.24-20.48-22.187 0-10.24 8.533-18.773 20.48-18.773zM139.947 152.747v0c11.947 0 20.48 8.533 20.48 20.48 0 10.24-8.533 20.48-20.48 20.48v0c-11.947-1.707-20.48-10.24-20.48-22.187 0-10.24 8.533-18.773 20.48-18.773zM20.48 260.267h49.493c10.24 0 20.48 8.533 20.48 20.48 0 10.24-8.533 20.48-20.48 20.48h-49.493c-10.24 0-20.48-8.533-20.48-20.48s8.533-20.48 20.48-20.48zM139.947 260.267v0c11.947 0 20.48 8.533 20.48 20.48 0 10.24-8.533 20.48-20.48 20.48v0c-10.24 0-20.48-8.533-20.48-20.48s8.533-20.48 20.48-20.48zM484.693 830.293c5.12 0 10.24 1.707 13.653 5.12v0c8.533 8.533 8.533 20.48 0 29.013s-20.48 8.533-29.013 0v0c-8.533-8.533-8.533-20.48 0-29.013 5.12-3.413 10.24-5.12 15.36-5.12z" />
<glyph unicode="&#xe903;" glyph-name="4" d="M1017.394 732.077l-138.735 138.735c-8.258 8.258-19.819 8.258-28.077 0l-122.219-125.523-123.871 125.523c-8.258 8.258-19.819 8.258-28.077 0l-138.735-138.735c-3.303-3.303-6.606-8.258-6.606-14.865v-153.6h-247.742c-6.606 0-11.561-3.303-16.516-8.258l-160.206-213.058c0 0 0-1.652-1.652-1.652-3.303-3.303-4.955-8.258-4.955-13.213v-289.032c0-9.91 8.258-19.819 19.819-19.819h984.361c11.561 0 19.819 9.91 19.819 19.819v678.813c0 4.955-1.652 11.561-6.606 14.865zM472.361 603.252h117.265c11.561 0 19.819 9.91 19.819 19.819 0 11.561-8.258 19.819-19.819 19.819h-117.265v64.413l117.265 120.568 117.265-118.916v-145.342h-234.529v39.639zM548.335 59.871h-508.697v46.245h318.761c11.561 0 19.819 9.91 19.819 19.819 0 11.561-8.258 19.819-19.819 19.819h-318.761v37.987h82.581c11.561 0 19.819 9.91 19.819 19.819 0 11.561-8.258 19.819-19.819 19.819h-82.581v80.929h508.697v-244.439zM61.11 347.252l132.129 175.071h497.135l-133.781-175.071h-495.484zM710.194 168.877l-26.426-49.548v99.097l26.426-49.548zM696.981 279.535h71.019l-34.684-67.716-36.335 67.716zM696.981 59.871l34.684 67.716 34.684-67.716h-69.368zM781.213 119.329l-26.426 49.548 26.426 49.548v-99.097zM875.355 59.871h-54.503v239.484c0 11.561-8.258 19.819-19.819 19.819h-137.084c-11.561 0-19.819-9.91-19.819-19.819v-241.135h-56.155v262.606l143.69 188.284 143.69-189.935v-259.303zM984.361 659.406h-66.065c-11.561 0-19.819-9.91-19.819-19.819 0-11.561 8.258-19.819 19.819-19.819h66.065v-59.458h-112.31c-11.561 0-19.819-9.91-19.819-19.819s8.258-19.819 19.819-19.819h112.31v-459.148h-67.716v264.258c0 4.955-1.652 8.258-4.955 13.213l-161.858 214.71c0 0 0 0 0 0s0 0 0 1.652v153.6l115.613 118.916 117.265-118.916v-49.548zM422.813 106.116v0c11.561 0 19.819 9.91 19.819 19.819 0 11.561-8.258 19.819-19.819 19.819v0c-11.561 0-19.819-9.91-19.819-19.819 0-11.561 9.91-19.819 19.819-19.819zM807.639 558.658v0c-11.561 0-19.819-9.91-19.819-19.819s8.258-19.819 19.819-19.819v0c11.561 0 19.819 9.91 19.819 19.819s-9.91 19.819-19.819 19.819z" />
<glyph unicode="&#xe904;" glyph-name="5" d="M51.2 613.547c10.24-5.12 22.187-1.707 27.307 8.533l95.573 192.853 337.92 104.107 337.92-104.107 95.573-192.853c3.413-6.827 10.24-11.947 18.773-11.947 3.413 0 6.827 0 8.533 1.707 10.24 5.12 13.653 17.067 8.533 27.307l-98.987 201.387c-1.707 5.12-6.827 8.533-11.947 10.24l-351.573 107.52c-3.413 1.707-5.12 1.707-6.827 1.707v0c-1.707 0-3.413 0-5.12-1.707l-353.28-107.52c-5.12-1.707-10.24-5.12-11.947-10.24l-98.987-199.68c-5.12-10.24-1.707-22.187 8.533-27.307zM512-23.040c-10.24 0-20.48-8.533-20.48-20.48v0c0-10.24 8.533-20.48 20.48-20.48 10.24 0 20.48 8.533 20.48 20.48v0c0 10.24-10.24 20.48-20.48 20.48zM512 0.853c10.24 0 20.48 8.533 20.48 20.48v148.48c0 10.24-8.533 20.48-20.48 20.48-10.24 0-20.48-8.533-20.48-20.48v-148.48c0-11.947 10.24-20.48 20.48-20.48zM641.707 531.627c5.12 0 10.24 1.707 13.653 5.12v0c8.533 8.533 8.533 20.48 0 29.013s-20.48 8.533-29.013 0v0c-8.533-8.533-8.533-20.48 0-29.013 5.12-3.413 10.24-5.12 15.36-5.12zM397.653 564.053c-8.533 8.533-20.48 8.533-29.013 0s-8.533-20.48 0-29.013v0c3.413-3.413 8.533-5.12 13.653-5.12s10.24 1.707 13.653 5.12c10.24 8.533 10.24 22.187 1.707 29.013v0zM136.533 186.88c-10.24 5.12-22.187 1.707-27.307-8.533l-107.52-213.333c-5.12-10.24-1.707-22.187 8.533-27.307 3.413-1.707 6.827-1.707 10.24-1.707 6.827 0 13.653 3.413 17.067 10.24l107.52 213.333c5.12 10.24 1.707 23.893-8.533 27.307zM324.267 188.587c-10.24 3.413-22.187-3.413-23.893-13.653l-54.613-213.333c-3.413-10.24 3.413-22.187 13.653-23.893 1.707 0 3.413 0 5.12 0 8.533 0 17.067 6.827 18.773 15.36l54.613 213.333c3.413 8.533-1.707 20.48-13.653 22.187zM1022.293-34.987l-107.52 213.333c-5.12 10.24-17.067 13.653-27.307 8.533s-13.653-17.067-8.533-27.307l107.52-213.333c3.413-6.827 10.24-10.24 17.067-10.24 3.413 0 6.827 0 8.533 1.707 10.24 5.12 15.36 17.067 10.24 27.307zM723.627 174.933c-3.413 10.24-13.653 17.067-23.893 13.653s-17.067-13.653-13.653-23.893l54.613-213.333c1.707-8.533 10.24-15.36 18.773-15.36 1.707 0 3.413 0 5.12 0 10.24 3.413 17.067 13.653 13.653 23.893l-54.613 215.040zM817.493 811.52l-300.373 83.627c-1.707 0-3.413 0-5.12 0s-3.413 0-5.12 0l-300.373-83.627c-5.12-1.707-10.24-5.12-11.947-10.24l-83.627-157.013c-1.707-3.413-1.707-6.827-1.707-10.24v-399.36c0-10.24 8.533-20.48 20.48-20.48h768c10.24 0 20.48 8.533 20.48 20.48v399.36c0 3.413 0 6.827-1.707 10.24l-83.627 157.013c-6.827 5.12-10.24 8.533-15.36 10.24zM373.76 256.853l138.24 138.24 138.24-138.24h-276.48zM875.52 256.853h-157.013v351.573c0 10.24-8.533 20.48-20.48 20.48h-128c-10.24 0-20.48-8.533-20.48-20.48 0-10.24 8.533-20.48 20.48-20.48h107.52v-303.787l-138.24 138.24 69.973 69.973c8.533 8.533 8.533 20.48 0 29.013s-20.48 8.533-29.013 0l-68.267-71.68-68.267 68.267c-8.533 8.533-20.48 8.533-29.013 0s-8.533-20.48 0-29.013l68.267-68.267-138.24-138.24v305.493h107.52c10.24 0 20.48 8.533 20.48 20.48 0 10.24-8.533 20.48-20.48 20.48h-128c-10.24 0-20.48-8.533-20.48-20.48v-351.573h-155.307v373.76l78.507 145.067 285.013 80.213 286.72-80.213 78.507-145.067-1.707-373.76zM512 627.2c-10.24 0-20.48-8.533-20.48-20.48 0-10.24 8.533-20.48 20.48-20.48v0c10.24 0 20.48 8.533 20.48 20.48s-10.24 20.48-20.48 20.48zM570.027 806.4h-116.053c-10.24 0-20.48-8.533-20.48-20.48v-116.053c0-10.24 8.533-20.48 20.48-20.48h116.053c10.24 0 20.48 8.533 20.48 20.48v116.053c0 11.947-10.24 20.48-20.48 20.48zM549.547 690.347h-76.8v76.8h76.8v-76.8z" />
<glyph unicode="&#xe905;" glyph-name="6" d="M826.027 413.867v375.467c0 51.2-42.667 93.867-93.867 93.867h-638.293c-51.2 0-93.867-42.667-93.867-93.867v-375.467c0-51.2 42.667-93.867 93.867-93.867h27.307v-112.64c0-20.48 17.067-37.547 37.547-37.547 10.24 0 22.187 5.12 29.013 13.653l119.467 138.24h423.253c52.907-3.413 95.573 39.253 95.573 92.16zM295.253 369.493c-6.827 0-13.653-3.413-18.773-8.533l-104.107-119.467v102.4c0 13.653-11.947 25.6-25.6 25.6h-52.907c-23.893 0-42.667 18.773-42.667 42.667v375.467c0 25.6 18.773 44.373 42.667 44.373h636.587c23.893 0 42.667-18.773 42.667-42.667v-375.467c0-23.893-18.773-42.667-42.667-42.667h-435.2zM930.133 727.893c-13.653 0-25.6-11.947-25.6-25.6s11.947-25.6 25.6-25.6c23.893 0 42.667-18.773 42.667-42.667v-375.467c0-23.893-18.773-42.667-42.667-42.667h-52.907c-13.653 0-25.6-11.947-25.6-25.6v-102.4l-104.107 119.467c-5.12 5.12-11.947 8.533-18.773 8.533h-385.707c-13.653 0-25.6-11.947-25.6-25.6s11.947-25.6 25.6-25.6h373.76l119.467-138.24c6.827-8.533 17.067-13.653 29.013-13.653 5.12 0 8.533 0 13.653 1.707 15.36 5.12 23.893 18.773 23.893 35.84v112.64h27.307c52.907 0 93.867 42.667 93.867 93.867v375.467c0 54.613-42.667 95.573-93.867 95.573zM413.013 622.080c-17.067 0-30.72-13.653-30.72-30.72s13.653-30.72 30.72-30.72c17.067 0 30.72 13.653 30.72 30.72s-13.653 30.72-30.72 30.72zM515.413 622.080c-17.067 0-30.72-13.653-30.72-30.72s13.653-30.72 30.72-30.72c17.067 0 30.72 13.653 30.72 30.72s-13.653 30.72-30.72 30.72zM310.613 622.080c-17.067 0-30.72-13.653-30.72-30.72s13.653-30.72 30.72-30.72c17.067 0 30.72 13.653 30.72 30.72s-13.653 30.72-30.72 30.72z" />
<glyph unicode="&#xe906;" glyph-name="7" d="M877.462 290.869v0c-30.014 28.248-56.497 47.669-79.448 58.262 52.966 54.731 84.745 127.117 84.745 204.8 0 158.897-128.883 289.545-287.779 289.545-61.793 0-121.821-21.186-171.255-58.262-7.062 28.248-22.952 60.028-47.669 97.103-35.31 51.2-70.621 75.917-111.228 75.917-49.434 1.766-88.276-33.545-121.821-63.559-7.062-5.297-12.359-10.593-17.655-15.89-21.186-17.655-33.545-47.669-37.076-84.745-5.297-56.497 10.593-130.648 44.138-210.097 37.076-90.041 97.103-183.614 171.255-270.124 169.49-201.269 351.338-291.31 455.503-291.31 30.014 0 54.731 7.062 72.386 21.186v0c5.297 5.297 12.359 10.593 17.655 15.89 38.841 31.779 82.979 67.090 84.745 120.055 3.531 37.076-15.89 72.386-56.497 111.228zM420.193 728.717c45.903 45.903 109.462 72.386 173.021 72.386 135.945 0 245.407-111.228 245.407-247.172 0-74.152-33.545-144.772-90.041-192.441 0 0-1.766 0-1.766 0-38.841 0-67.090-22.952-97.103-49.434 0 0 0 0 0 0s-1.766-1.766-1.766-1.766c-3.531-3.531-7.062-5.297-10.593-8.828-1.766-1.766-3.531-3.531-8.828-3.531-17.655 0-63.559 19.421-171.255 146.538-45.903 54.731-75.917 97.103-95.338 130.648s-24.717 60.028-14.124 68.855c3.531 1.766 5.297 5.297 8.828 7.062 26.483 22.952 52.966 45.903 63.559 77.683zM824.497 91.366c-7.062-5.297-12.359-10.593-19.421-15.89-8.828-7.062-24.717-12.359-44.138-12.359-91.807 0-263.062 86.51-423.724 277.186-72.386 84.745-128.883 173.021-164.193 259.531-31.779 72.386-45.903 141.241-42.372 190.676 3.531 26.483 10.593 45.903 21.186 54.731v0c5.297 5.297 12.359 10.593 17.655 15.89 10.593 10.593 21.186 19.421 31.779 28.248 10.593-14.124 28.248-33.545 47.669-61.793 5.297-5.297 10.593-8.828 17.655-8.828 3.531 0 8.828 1.766 12.359 3.531 8.828 7.062 12.359 19.421 5.297 30.014-17.655 24.717-33.545 44.138-45.903 58.262 8.828 3.531 15.89 5.297 24.717 5.297 24.717 0 51.2-19.421 75.917-58.262 35.31-51.2 49.434-88.276 42.372-112.993-5.297-22.952-26.483-40.607-52.966-61.793-3.531-1.766-5.297-5.297-8.828-7.062v0c-26.483-24.717-24.717-65.324 5.297-121.821 19.421-37.076 52.966-82.979 100.634-137.71 93.572-109.462 158.897-160.662 203.034-160.662 14.124 0 26.483 5.297 37.076 14.124 0 0 0 0 0 0 10.593-7.062 26.483-17.655 44.138-30.014 14.124-10.593 26.483-19.421 35.31-28.248 3.531-3.531 8.828-5.297 14.124-5.297s12.359 1.766 15.89 7.062c7.062 8.828 7.062 22.952-1.766 30.014-10.593 8.828-22.952 19.421-38.841 30.014-12.359 8.828-24.717 15.89-35.31 22.952 15.89 12.359 30.014 19.421 45.903 19.421 26.483 0 58.262-19.421 102.4-60.028 30.014-30.014 45.903-56.497 44.138-79.448 0-28.248-33.545-56.497-67.090-84.745zM319.559 744.607c3.531 0 7.062 0 10.593 3.531 10.593 5.297 14.124 19.421 8.828 28.248-3.531 7.062-7.062 12.359-10.593 17.655-7.062 8.828-19.421 12.359-30.014 5.297-8.828-7.062-12.359-19.421-5.297-30.014 3.531-3.531 5.297-8.828 8.828-12.359 3.531-8.828 10.593-12.359 17.655-12.359zM824.497 202.593c-8.828 8.828-21.186 8.828-30.014 0s-8.828-21.186 0-30.014c0 0 1.766-1.766 12.359-12.359 3.531-5.297 10.593-7.062 15.89-7.062s10.593 1.766 14.124 5.297c8.828 7.062 8.828 21.186 1.766 30.014-10.593 10.593-12.359 14.124-14.124 14.124zM642.648 523.917h70.621v-35.31c0-8.828 8.828-12.359 19.421-12.359 8.828 0 19.421 3.531 19.421 12.359v35.31h14.124c5.297 0 12.359 8.828 12.359 17.655s-3.531 17.655-12.359 17.655h-14.124v31.779c0 8.828-8.828 12.359-19.421 12.359-8.828 0-19.421-3.531-19.421-12.359v-31.779h-33.545l56.497 112.993c0 1.766 1.766 3.531 1.766 5.297 0 8.828-12.359 14.124-19.421 14.124-5.297 0-12.359-3.531-15.89-10.593l-68.855-137.71c-1.766-3.531-1.766-5.297-1.766-7.062-1.766-7.062 3.531-12.359 10.593-12.359zM490.814 476.248h104.166c7.062 0 12.359 8.828 12.359 17.655s-5.297 15.89-12.359 15.89h-81.214v7.062c0 30.014 93.572 51.2 93.572 114.759 0 37.076-31.779 60.028-65.324 60.028-31.779 0-63.559-21.186-63.559-54.731 0-15.89 7.062-21.186 17.655-21.186 12.359 0 19.421 7.062 19.421 14.124 0 17.655 12.359 26.483 26.483 26.483 19.421 0 26.483-14.124 26.483-26.483 0-42.372-93.572-67.090-93.572-112.993v-28.248c0-7.062 10.593-12.359 15.89-12.359zM723.862-21.628h-423.724c-12.359 0-21.186-8.828-21.186-21.186s8.828-21.186 21.186-21.186h423.724c12.359 0 21.186 8.828 21.186 21.186s-8.828 21.186-21.186 21.186z" />
<glyph unicode="&#xe909;" glyph-name="tab1" horiz-adv-x="464" d="M443.2 620.8l-99.2 196.8v44.8h4.8c9.6 0 16 8 16 16v65.6c0 9.6-8 16-16 16h-233.6c-9.6 0-16-8-16-16v-65.6c0-9.6 8-16 16-16h4.8v-44.8l-99.2-196.8c-11.2-24-20.8-64-20.8-89.6v-534.4c0-33.6 27.2-60.8 59.2-60.8h344c33.6 0 59.2 27.2 59.2 59.2v536c1.6 27.2-8 65.6-19.2 89.6zM131.2 928h203.2v-32h-203.2v32zM150.4 804.8c1.6 1.6 1.6 4.8 1.6 8v49.6h158.4v-49.6c0-3.2 0-4.8 1.6-8l62.4-123.2c-11.2-3.2-19.2-9.6-27.2-16-9.6-8-16-12.8-32-12.8s-22.4 4.8-32 12.8c-11.2 8-25.6 19.2-51.2 19.2-27.2 0-40-11.2-51.2-19.2-9.6-8-16-12.8-32-12.8s-22.4 4.8-32 12.8c-6.4 4.8-16 11.2-27.2 16l60.8 123.2zM432-4.8c0-14.4-12.8-27.2-27.2-27.2h-345.6c-14.4 0-27.2 12.8-27.2 27.2v536c0 20.8 8 56 17.6 75.2l24 46.4c9.6-1.6 14.4-6.4 22.4-11.2 11.2-8 25.6-19.2 51.2-19.2s40 11.2 51.2 19.2c9.6 8 16 12.8 32 12.8s22.4-4.8 32-12.8c11.2-8 25.6-19.2 51.2-19.2 27.2 0 40 11.2 51.2 19.2 8 4.8 12.8 9.6 22.4 11.2l24-46.4c9.6-19.2 17.6-52.8 17.6-75.2v-536zM81.6 99.2c-9.6 0-16-8-16-16v-65.6c0-9.6 8-16 16-16 9.6 0 16 8 16 16v65.6c0 9.6-6.4 16-16 16zM100.8 598.4c-8 4.8-17.6 1.6-20.8-6.4-8-14.4-14.4-44.8-14.4-60.8v-382.4c0-9.6 8-16 16-16 9.6 0 16 8 16 16v382.4c0 11.2 6.4 35.2 11.2 46.4 3.2 6.4 0 17.6-8 20.8zM201.6 796.8h60.8c9.6 0 16 8 16 16s-8 16-16 16h-60.8c-9.6 0-16-8-16-16s6.4-16 16-16z" />
<glyph unicode="&#xe90a;" glyph-name="tab2" d="M772.8 1.6c1.6 0 1.6 0 3.2 0 8 0 14.4 6.4 16 14.4l48 299.2c1.6 9.6-4.8 17.6-12.8 19.2-9.6 1.6-17.6-4.8-19.2-12.8l-48-299.2c-1.6-11.2 4.8-19.2 12.8-20.8zM705.6 184c0 0 1.6 0 1.6 0 8 0 16 6.4 16 14.4l12.8 116.8c1.6 9.6-4.8 17.6-14.4 17.6-9.6 1.6-17.6-4.8-17.6-14.4l-12.8-116.8c-1.6-9.6 4.8-17.6 14.4-17.6zM686.4 1.6c0 0 1.6 0 1.6 0 8 0 16 6.4 16 14.4l12.8 116.8c1.6 9.6-4.8 17.6-14.4 17.6-9.6 1.6-17.6-4.8-17.6-14.4l-12.8-116.8c-1.6-8 4.8-17.6 14.4-17.6zM598.4 1.6c1.6 0 1.6 0 0 0 9.6 0 16 6.4 17.6 16l16 299.2c0 9.6-6.4 16-16 17.6-9.6 0-16-6.4-17.6-16l-16-299.2c0-9.6 8-17.6 16-17.6zM512 1.6c9.6 0 16 8 16 16v299.2c0 9.6-8 16-16 16-9.6 0-16-8-16-16v-299.2c0-9.6 6.4-16 16-16zM424 1.6c0 0 0 0 0 0 9.6 0 17.6 8 16 17.6l-16 299.2c0 9.6-8 16-17.6 16s-16-8-16-17.6l16-299.2c1.6-9.6 9.6-16 17.6-16zM336 1.6c0 0 1.6 0 1.6 0 9.6 1.6 16 9.6 14.4 17.6l-32 299.2c-1.6 9.6-9.6 16-17.6 14.4-9.6-1.6-16-9.6-14.4-17.6l32-299.2c0-8 8-14.4 16-14.4zM232 14.4c1.6-8 8-14.4 16-14.4 1.6 0 1.6 0 3.2 0 9.6 1.6 14.4 9.6 12.8 19.2l-48 297.6c-1.6 9.6-9.6 14.4-19.2 12.8s-14.4-9.6-12.8-19.2l48-296zM956.8 529.6c-1.6 41.6-8 81.6-20.8 120 0 1.6 0 3.2-1.6 3.2-57.6 179.2-225.6 307.2-422.4 307.2s-364.8-128-422.4-307.2c0-1.6-1.6-3.2-1.6-3.2-12.8-38.4-19.2-78.4-20.8-120-38.4-8-67.2-41.6-67.2-81.6 0-41.6 30.4-75.2 70.4-81.6l88-417.6c1.6-8 8-12.8 16-12.8h676.8c8 0 14.4 4.8 16 12.8l88 417.6c40 6.4 70.4 41.6 70.4 81.6-1.6 40-30.4 73.6-68.8 81.6zM512 928c176 0 326.4-112 385.6-267.2-25.6-4.8-41.6-17.6-56-30.4-16-14.4-28.8-24-57.6-24s-41.6 11.2-57.6 24c-17.6 16-38.4 32-78.4 32s-60.8-17.6-78.4-32c-16-14.4-28.8-24-57.6-24s-41.6 11.2-57.6 24c-17.6 16-38.4 32-78.4 32s-60.8-17.6-78.4-32c-16-14.4-28.8-24-57.6-24s-41.6 11.2-57.6 24c-14.4 12.8-30.4 25.6-56 30.4 59.2 155.2 209.6 267.2 385.6 267.2zM836.8-32h-649.6l-83.2 396.8h817.6l-84.8-396.8zM940.8 396.8h-857.6c-27.2 0-51.2 24-51.2 51.2s22.4 51.2 51.2 51.2c9.6 0 16 8 16 16 0 40 6.4 78.4 16 115.2 20.8-3.2 32-12.8 44.8-24 17.6-16 38.4-32 78.4-32s60.8 17.6 78.4 32c16 14.4 28.8 24 57.6 24s41.6-11.2 57.6-24c17.6-16 38.4-32 78.4-32s60.8 17.6 78.4 32c16 14.4 28.8 24 57.6 24s41.6-11.2 57.6-24c17.6-16 38.4-32 78.4-32s60.8 17.6 78.4 32c14.4 11.2 25.6 20.8 44.8 24 11.2-36.8 16-75.2 16-115.2 0-9.6 8-16 16-16 27.2 0 51.2-22.4 51.2-51.2 3.2-27.2-20.8-51.2-48-51.2z" />
<glyph unicode="&#xe90b;" glyph-name="tab3" d="M996.8 446.4c16 3.2 27.2 17.6 27.2 33.6v52.8c0 0 0 0 0 1.6s0 3.2-1.6 4.8c0 1.6-1.6 4.8-3.2 6.4 0 0 0 1.6-1.6 1.6-1.6 1.6-3.2 3.2-4.8 3.2v0 0l-408 176c-20.8 8-44.8 3.2-59.2-14.4-16-19.2-41.6-28.8-67.2-22.4s-44.8 24-51.2 49.6c-1.6 8-3.2 17.6-1.6 25.6 3.2 22.4-9.6 43.2-30.4 52.8l-81.6 35.2c-16 6.4-33.6 8-49.6 1.6-64-28.8-121.6-68.8-168-121.6s-78.4-116.8-94.4-185.6l-1.6-11.2c0 0 0-1.6 0-1.6s0-1.6 0-1.6v-425.6c0-36.8 30.4-67.2 68.8-67.2h462.4c16 0 30.4 11.2 33.6 27.2 4.8 24 25.6 40 49.6 40s44.8-17.6 49.6-40c3.2-16 17.6-27.2 33.6-27.2h257.6c38.4 0 68.8 30.4 68.8 68.8v204.8c0 16-11.2 30.4-27.2 33.6-24 4.8-40 25.6-40 49.6-1.6 24 16 44.8 40 49.6zM121.6 710.4c41.6 48 96 86.4 155.2 110.4 8 3.2 16 3.2 24 0l83.2-36.8c6.4-3.2 11.2-9.6 9.6-17.6-1.6-12.8-1.6-25.6 1.6-38.4 9.6-36.8 38.4-65.6 76.8-73.6 36.8-8 76.8 4.8 100.8 33.6 4.8 6.4 12.8 8 19.2 4.8l332.8-144h-886.4c16 60.8 44.8 115.2 83.2 161.6zM990.4 313.6v-206.4c0-19.2-16-33.6-33.6-33.6h-257.6c-8 40-43.2 67.2-83.2 67.2s-75.2-28.8-83.2-68.8h-464c-19.2 0-33.6 16-33.6 33.6v409.6h955.2v-35.2c-40-8-67.2-43.2-67.2-83.2-1.6-40 27.2-75.2 67.2-83.2zM819.2 176c0-36.8 30.4-67.2 68.8-68.8 38.4 0 68.8 30.4 68.8 68.8s-30.4 68.8-68.8 68.8c-38.4-1.6-68.8-32-68.8-68.8zM921.6 176c0-19.2-16-33.6-33.6-33.6-19.2 0-33.6 16-33.6 33.6 0 19.2 16 33.6 33.6 33.6s33.6-14.4 33.6-33.6zM392 396.8c-56 0-102.4-46.4-102.4-102.4s46.4-102.4 102.4-102.4c56 0 102.4 46.4 102.4 102.4 0 57.6-44.8 102.4-102.4 102.4zM392 227.2c-38.4 0-68.8 30.4-68.8 67.2s30.4 67.2 68.8 68.8c38.4 0 68.8-30.4 68.8-68.8 0-36.8-30.4-67.2-68.8-67.2zM648 465.6c-46.4 0-84.8-38.4-84.8-84.8s38.4-84.8 84.8-84.8c46.4 0 84.8 38.4 84.8 84.8 1.6 46.4-36.8 84.8-84.8 84.8zM648 329.6c-28.8 0-51.2 22.4-51.2 51.2s22.4 51.2 51.2 51.2c28.8 0 51.2-22.4 51.2-51.2s-22.4-51.2-51.2-51.2zM204.8 379.2c0 28.8-22.4 51.2-51.2 51.2s-51.2-22.4-51.2-51.2c0-28.8 22.4-51.2 51.2-51.2 28.8 1.6 51.2 24 51.2 51.2zM136 379.2c0 9.6 8 17.6 17.6 17.6s17.6-8 17.6-17.6c0-9.6-8-17.6-17.6-17.6-9.6 1.6-17.6 9.6-17.6 17.6zM187.2 227.2c-28.8 0-51.2-22.4-51.2-51.2s22.4-51.2 51.2-51.2c28.8 0 51.2 22.4 51.2 51.2s-22.4 51.2-51.2 51.2zM187.2 158.4c-9.6 0-17.6 8-17.6 17.6s8 17.6 17.6 17.6c9.6 0 17.6-8 17.6-17.6s-8-17.6-17.6-17.6zM609.6 222.4c-6.4 6.4-17.6 6.4-24 0-1.6-1.6-3.2-3.2-3.2-6.4-1.6-4.8-1.6-8 0-12.8s4.8-8 9.6-9.6c4.8-1.6 9.6-1.6 12.8 0 1.6 1.6 3.2 1.6 6.4 3.2 3.2 3.2 4.8 8 4.8 12.8 0 1.6 0 4.8-1.6 6.4-1.6 3.2-3.2 4.8-4.8 6.4zM427.2 430.4c6.4 0 11.2 3.2 14.4 8s3.2 11.2 1.6 16c-1.6 1.6-1.6 3.2-3.2 6.4-4.8 4.8-12.8 6.4-19.2 3.2-1.6 0-4.8-1.6-6.4-3.2s-3.2-3.2-3.2-6.4-1.6-11.2 1.6-16c3.2-4.8 8-8 14.4-8zM836.8 345.6c6.4 0 11.2 3.2 14.4 8s3.2 11.2 1.6 16c-3.2 6.4-8 11.2-16 11.2-6.4 0-12.8-4.8-16-11.2-1.6-4.8-1.6-11.2 1.6-16s8-8 14.4-8z" />
<glyph unicode="&#xe90c;" glyph-name="tab4" d="M914.773 538.453c-40.96 81.92-104.107 133.12-180.907 146.773-51.2 8.533-114.347 5.12-177.493-10.24-5.12-1.707-8.533-1.707-13.653-3.413 13.653 42.667 51.2 129.707 148.48 204.8 10.24 6.827 11.947 20.48 3.413 30.72-6.827 10.24-22.187 11.947-30.72 3.413-44.373-34.133-78.507-71.68-104.107-105.813-6.827 32.427-18.773 71.68-49.493 100.693-61.44 61.44-163.84 54.613-168.96 54.613-10.24 0-20.48-10.24-20.48-20.48 0-3.413-6.827-104.107 52.907-163.84 40.96-40.96 100.693-51.2 136.533-52.907-8.533-20.48-13.653-39.253-17.067-51.2-8.533 0-17.067 1.707-25.6 3.413-63.147 15.36-126.293 18.773-177.493 10.24-76.8-13.653-141.653-64.853-180.907-146.773-39.253-78.507-51.2-177.493-34.133-274.773 17.067-98.987 63.147-186.027 126.293-247.467 54.613-52.907 119.467-80.213 182.613-80.213 11.947 0 25.6 1.707 37.547 3.413 5.12 1.707 11.947 1.707 18.773 3.413 44.373 11.947 92.16 11.947 138.24 0 6.827-1.707 11.947-3.413 18.773-3.413 11.947-1.707 25.6-3.413 37.547-3.413 64.853 0 128 27.307 182.613 80.213 64.853 61.44 109.227 148.48 126.293 247.467 22.187 97.28 10.24 196.267-29.013 274.773zM406.187 806.4c-32.427 32.427-39.253 81.92-40.96 109.227 29.013-1.707 78.507-8.533 110.933-39.253 32.427-32.427 39.253-81.92 40.96-109.227-27.307 0-78.507 6.827-110.933 39.253zM902.827 270.507c-32.427-180.907-165.547-310.613-295.253-288.427-5.12 0-8.533 1.707-13.653 3.413-52.907 13.653-109.227 13.653-162.133 0-5.12-1.707-10.24-1.707-13.653-3.413-131.413-22.187-264.533 107.52-298.667 288.427-15.36 90.453-5.12 177.493 30.72 249.173 34.133 68.267 87.040 112.64 148.48 122.88 15.36 3.413 32.427 3.413 49.493 3.413 34.133 0 71.68-5.12 109.227-13.653 17.067-3.413 35.84-6.827 52.907-6.827 0 0 0 0 0 0s0 0 0 0c17.067 0 35.84 1.707 52.907 6.827 56.32 13.653 114.347 17.067 158.72 10.24 61.44-10.24 114.347-54.613 148.48-122.88 39.253-71.68 49.493-158.72 32.427-249.173zM834.56 261.973c-11.947 3.413-23.893-3.413-27.307-15.36-15.36-49.493-39.253-93.867-69.973-126.293-32.427-34.133-66.56-52.907-98.987-52.907-11.947 0-22.187-10.24-22.187-22.187s10.24-22.187 22.187-22.187c44.373 0 92.16 23.893 133.12 66.56 35.84 37.547 63.147 87.040 80.213 143.36 1.707 13.653-5.12 25.6-17.067 29.013zM846.507 350.72c-11.947 1.707-23.893-6.827-25.6-18.773 0 0 0 0 0-1.707-3.413-11.947 5.12-23.893 17.067-25.6 1.707 0 3.413 0 5.12 0 10.24 0 20.48 6.827 22.187 17.067 0 1.707 0 1.707 0 3.413 1.707 11.947-6.827 23.893-18.773 25.6z" />
<glyph unicode="&#xe90d;" glyph-name="tab5" d="M254.348 162.271c-49.548 11.561-90.839 47.897-105.703 94.142-3.303 8.258-13.213 13.213-21.471 11.561-9.91-3.303-14.865-13.213-11.561-21.471 19.819-57.806 69.368-102.4 132.129-117.265 1.652 0 3.303 0 3.303 0 8.258 0 14.865 4.955 16.516 13.213s-4.955 18.168-13.213 19.819zM703.587 36.748c-49.548 11.561-90.839 47.897-105.703 94.142-3.303 8.258-13.213 13.213-21.471 11.561-9.91-3.303-14.865-13.213-11.561-21.471 19.819-57.806 69.368-102.4 132.129-117.265 1.652 0 3.303 0 3.303 0 8.258 0 14.865 4.955 16.516 13.213 3.303 8.258-3.303 16.516-13.213 19.819zM127.174 320.826c8.258 0 14.865 4.955 16.516 13.213 3.303 19.819 11.561 37.987 21.471 54.503 4.955 8.258 1.652 18.168-6.606 23.123-6.606 4.955-18.168 3.303-23.123-4.955-11.561-19.819-21.471-41.29-26.426-64.413 0-9.91 4.955-19.819 14.865-21.471 1.652 0 1.652 0 3.303 0zM858.839 405.058c37.987 125.523-3.303 239.484-90.839 376.568 11.561-3.303 24.774-4.955 36.335-4.955 13.213 0 26.426 1.652 41.29 4.955 47.897 9.91 89.187 36.335 117.265 74.323l9.91 13.213-14.865 9.91c-66.065 47.897-168.465 34.684-231.226-24.774-13.213 29.729-36.335 54.503-66.065 72.671-41.29 26.426-90.839 36.335-135.432 29.729l-16.516-3.303 3.303-16.516c6.606-44.594 34.684-84.232 77.626-112.31 33.032-19.819 71.019-31.381 109.006-31.381 3.303 0 8.258 0 11.561 0-8.258-150.297-122.219-285.729-237.832-328.671-41.29 54.503-102.4 87.535-170.116 87.535h-34.684c-123.871 1.652-226.271-113.961-226.271-256 0-132.129 109.006-241.135 244.439-241.135 89.187 0 166.813 47.897 209.755 117.265 1.652-132.129 110.658-237.832 244.439-237.832 133.781 1.652 242.787 109.006 242.787 241.135 0 100.748-49.548 186.632-123.871 229.574zM607.794 855.948c-28.077 18.168-47.897 42.942-57.806 71.019 31.381 1.652 64.413-8.258 92.49-26.426s47.897-42.942 57.806-71.019c-29.729-1.652-64.413 8.258-92.49 26.426zM923.252 862.555c-46.245-47.897-122.219-64.413-175.071-37.987 44.594 47.897 120.568 64.413 175.071 37.987zM285.729 89.6c-115.613 0-209.755 92.49-209.755 206.452 0 123.871 85.884 222.968 191.587 222.968h34.684c52.852 0 99.097-24.774 133.781-64.413-13.213-3.303-24.774-3.303-37.987-3.303-9.91 0-18.168-8.258-18.168-16.516 0-9.91 8.258-16.516 18.168-16.516 19.819 0 39.639 3.303 59.458 8.258 23.123-36.335 36.335-80.929 36.335-128.826 0-115.613-92.49-208.103-208.103-208.103zM492.181 436.439c115.613 46.245 227.923 173.419 249.394 322.065 89.187-142.039 115.613-239.484 85.884-338.581-23.123 8.258-46.245 13.213-72.671 13.213h-34.684c-80.929 0-151.948-49.548-193.239-122.219 0 46.245-13.213 89.187-34.684 125.523zM738.271-29.316c-115.613 0-209.755 92.49-209.755 206.452 0 123.871 85.884 222.968 191.587 222.968h34.684c21.471 0 41.29-4.955 61.11-11.561-6.606-16.516-14.865-31.381-23.123-47.897-4.955-8.258-1.652-18.168 6.606-23.123 3.303-1.652 4.955-1.652 8.258-1.652 6.606 0 11.561 3.303 14.865 8.258 9.91 16.516 16.516 33.032 24.774 49.548 59.458-37.987 100.748-112.31 100.748-196.542 0-113.961-94.142-206.452-209.755-206.452zM424.465 400.103c-37.987 0-69.368 31.381-69.368 69.368 0 9.91-8.258 16.516-18.168 16.516s-18.168-8.258-18.168-16.516c0-56.155 46.245-102.4 104.052-102.4 9.91 0 18.168 8.258 18.168 16.516 1.652 8.258-6.606 16.516-16.516 16.516zM843.974 279.535c-37.987 0-69.368 31.381-69.368 69.368 0 9.91-8.258 16.516-18.168 16.516s-18.168-8.258-18.168-16.516c0-56.155 46.245-102.4 104.052-102.4 9.91 0 18.168 8.258 18.168 16.516s-8.258 16.516-16.516 16.516z" />
<glyph unicode="&#xe90e;" glyph-name="tab6" d="M815.787 765.44v0c0 1.707 0 1.707 0 0 0 11.947-5.12 23.893-15.36 29.013-49.493 32.427-143.36 78.507-237.227 40.96v71.68c0 29.013-20.48 52.907-47.787 52.907h-42.667c-25.6 0-47.787-23.893-47.787-52.907v-78.507c-40.96 6.827-133.12 15.36-221.867-37.547-13.653-8.533-18.773-23.893-13.653-39.253 0-1.707 1.707-3.413 1.707-3.413-1.707 0-3.413-1.707-5.12-1.707-5.12-1.707-8.533-3.413-11.947-6.827-105.813-87.040-165.547-211.627-165.547-341.333 0-254.293 225.28-462.507 503.467-462.507s503.467 208.213 503.467 462.507c0 145.067-73.387 279.893-199.68 366.933zM426.667 789.333c8.533-1.707 18.773 0 25.6 6.827s11.947 15.36 11.947 25.6v85.333c0 8.533 5.12 15.36 8.533 15.36h42.667c3.413 0 8.533-6.827 8.533-15.36v-80.213c0-10.24 5.12-20.48 15.36-27.307 8.533-5.12 20.48-6.827 30.72-1.707 69.973 30.72 143.36 3.413 189.44-22.187-44.373 0-80.213-3.413-107.52-10.24-11.947-3.413-22.187-13.653-23.893-25.6-1.707-13.653 3.413-25.6 15.36-32.427 27.307-17.067 46.080-34.133 58.027-52.907 8.533-13.653 13.653-25.6 17.067-37.547-40.96 34.133-88.747 46.080-121.173 51.2-8.533 1.707-18.773 1.707-25.6 1.707-8.533 0-17.067-3.413-23.893-8.533-6.827-6.827-10.24-15.36-10.24-23.893 1.707-97.28-32.427-163.84-51.2-192.853-18.773 39.253-23.893 126.293-23.893 196.267 0 17.067-11.947 30.72-27.307 32.427-5.12 0-10.24 1.707-15.36 1.707-1.707 0-1.707 0-3.413 0-3.413 0-5.12 0-8.533 0s-8.533 0-11.947-1.707c-1.707 0-5.12-1.707-6.827-1.707-3.413-1.707-8.533-1.707-11.947-3.413-1.707 0-5.12-1.707-6.827-1.707-3.413-1.707-8.533-3.413-11.947-5.12-1.707-1.707-5.12-1.707-6.827-3.413-3.413-1.707-8.533-3.413-11.947-5.12-1.707-1.707-5.12-1.707-6.827-3.413-5.12-1.707-8.533-5.12-11.947-6.827-1.707-1.707-3.413-1.707-5.12-3.413-5.12-3.413-8.533-5.12-13.653-8.533-1.707-1.707-3.413-1.707-5.12-3.413-5.12-3.413-11.947-8.533-17.067-11.947 6.827 11.947 13.653 23.893 22.187 34.133 0 0 0 1.707 1.707 1.707 8.533 10.24 15.36 18.773 23.893 27.307 0 0 0 0 0 0 10.24 10.24 20.48 18.773 29.013 23.893 1.707 1.707 1.707 1.707 3.413 3.413 0 0 1.707 0 1.707 1.707 1.707 1.707 5.12 3.413 6.827 5.12 10.24 6.827 15.36 18.773 13.653 30.72s-8.533 22.187-20.48 27.307c-1.707 0-1.707 0-3.413 1.707-3.413 1.707-8.533 3.413-13.653 3.413-3.413 0-5.12 1.707-8.533 1.707 0 0 0 0-1.707 0 0 0 0 0 0 0-22.187 3.413-47.787 5.12-76.8 1.707 69.973 25.6 139.947 17.067 168.96 10.24zM512-26.453c-256 0-465.92 189.44-465.92 423.253 0 117.76 54.613 232.107 150.187 312.32 40.96 10.24 85.333 20.48 129.707 25.6 1.707 0 3.413 0 5.12 0s1.707 0 3.413 0c-1.707-1.707-3.413-3.413-5.12-3.413-1.707-1.707-3.413-3.413-5.12-5.12s-3.413-3.413-5.12-5.12c-1.707-1.707-5.12-3.413-6.827-5.12s-5.12-5.12-6.827-6.827c-1.707-1.707-3.413-3.413-6.827-6.827s-8.533-8.533-11.947-11.947c0 0-1.707-1.707-1.707-1.707-18.773-20.48-35.84-47.787-51.2-81.92-5.12-13.653-1.707-29.013 10.24-37.547s29.013-8.533 39.253 0c32.427 27.307 93.867 69.973 143.36 66.56 0-52.907 1.707-170.667 34.133-220.16 5.12-8.533 15.36-13.653 25.6-15.36v0c10.24 0 20.48 5.12 25.6 13.653 20.48 27.307 64.853 102.4 64.853 218.453 27.307-1.707 83.627-11.947 129.707-54.613 10.24-10.24 23.893-11.947 35.84-5.12s18.773 18.773 17.067 32.427c-1.707 8.533-3.413 18.773-6.827 29.013 0 0 0 0 0 1.707-3.413 8.533-6.827 18.773-11.947 29.013 0 1.707-1.707 3.413-1.707 3.413-1.707 3.413-5.12 8.533-8.533 11.947-1.707 1.707-1.707 3.413-3.413 5.12-1.707 3.413-5.12 6.827-8.533 10.24-1.707 1.707-3.413 5.12-5.12 6.827-1.707 3.413-5.12 5.12-8.533 8.533s-5.12 5.12-8.533 8.533c-3.413 1.707-6.827 5.12-10.24 6.827-3.413 3.413-6.827 5.12-11.947 8.533 10.24 1.707 22.187 3.413 35.84 3.413 0 0 1.707 0 1.707 0 3.413 0 5.12 0 8.533 0 1.707 0 3.413 0 5.12 0s5.12 0 6.827 0c3.413 0 6.827 0 8.533 0s3.413 0 5.12 0c5.12 0 11.947 0 18.773 0h6.827c5.12 0 11.947-1.707 17.067-1.707h5.12c116.053-80.213 180.907-203.093 180.907-336.213 3.413-235.52-206.507-426.667-462.507-426.667zM124.587 374.613c-1.707 10.24-10.24 17.067-22.187 15.36-10.24-1.707-17.067-11.947-15.36-22.187 3.413-29.013 13.653-54.613 27.307-78.507 3.413-6.827 10.24-8.533 17.067-8.533 3.413 0 6.827 1.707 10.24 3.413 8.533 5.12 11.947 17.067 6.827 25.6-13.653 18.773-20.48 40.96-23.893 64.853zM105.813 432.64c0 0 1.707 0 0 0 11.947 0 18.773 6.827 20.48 17.067 1.707 22.187 5.12 42.667 13.653 63.147 3.413 10.24-1.707 20.48-11.947 23.893s-20.48-1.707-23.893-11.947c-8.533-23.893-13.653-47.787-15.36-73.387-1.707-10.24 6.827-18.773 17.067-18.773z" />
<glyph unicode="&#xe90f;" glyph-name="tab7" d="M931.51 264.671c-19.819 9.91-26.426 29.729-36.335 69.368-13.213 51.2-33.032 122.219-112.31 198.194 14.865 21.471 33.032 44.594 54.503 69.368l3.303 4.955v6.606c0 3.303 0 6.606 0 8.258l74.323 74.323h26.426c54.503 0 82.581 28.077 82.581 82.581 0 36.335-28.077 56.155-51.2 64.413-4.955 23.123-24.774 51.2-64.413 51.2-54.503 0-82.581-28.077-82.581-82.581v-42.942l-71.019-71.019c-8.258 0-13.213-1.652-14.865-1.652l-4.955-1.652-3.303-3.303c-36.335-36.335-72.671-61.11-105.703-77.626-16.516 3.303-71.019 16.516-113.961 16.516-292.335 0-512-241.135-512-396.387 0-227.923 260.955-231.226 264.258-231.226h363.355c99.097 0 199.845 0 267.561 16.516 59.458 14.865 112.31 75.974 112.31 132.129 0 47.897-28.077 90.839-75.974 113.961zM858.839 755.2v56.155c0 36.335 13.213 49.548 49.548 49.548 29.729 0 33.032-24.774 33.032-33.032v-16.516h16.516c8.258 0 33.032-9.91 33.032-33.032 0-36.335-13.213-49.548-49.548-49.548h-39.639l-69.368-69.368c-4.955 8.258-9.91 14.865-16.516 19.819s-13.213 8.258-19.819 11.561l62.761 64.413zM751.484 664.361c8.258 1.652 29.729 1.652 42.942-9.91 8.258-6.606 13.213-18.168 14.865-34.684-113.961-132.129-130.477-229.574-132.129-234.529v-3.303c0-90.839-74.323-165.161-165.161-165.161s-165.161 74.323-165.161 165.161c0 90.839 74.323 165.161 165.161 165.161 4.955 0 120.568 1.652 239.484 117.265zM888.568 51.613c-64.413-16.516-163.51-16.516-260.955-16.516h-363.355c-9.91 0-231.226 1.652-231.226 198.194 0 143.69 214.71 363.355 478.968 363.355 18.168 0 39.639-1.652 57.806-4.955-34.684-11.561-57.806-11.561-57.806-11.561-109.006 0-198.194-89.187-198.194-198.194s89.187-198.194 198.194-198.194c109.006 0 196.542 87.535 198.194 196.542 1.652 8.258 13.213 54.503 54.503 123.871 69.368-67.716 85.884-128.826 99.097-178.374 9.91-39.639 19.819-72.671 52.852-90.839 16.516-8.258 56.155-34.684 56.155-84.232 1.652-41.29-39.639-87.535-84.232-99.097zM853.884 116.026c-42.942-13.213-110.658-14.865-176.723-14.865v-33.032c67.716 0 138.735 1.652 186.632 18.168 37.987 13.213 61.11 42.942 61.11 80.929h-33.032c0-24.774-13.213-42.942-37.987-51.2zM578.065 68.129h49.548v33.032h-49.548v-33.032zM379.871 381.935h33.032c0 54.503 44.594 99.097 99.097 99.097v33.032c-72.671 0-132.129-59.458-132.129-132.129z" />
<glyph unicode="&#xe910;" glyph-name="tab8" d="M1022.4 472c-6.4 89.6-44.8 174.4-108.8 238.4-65.6 64-150.4 100.8-240 105.6-136 6.4-264-64-334.4-180.8-16-27.2-44.8-43.2-76.8-43.2-64 0-126.4-22.4-174.4-64-49.6-41.6-80-99.2-86.4-163.2-1.6-9.6-1.6-19.2-1.6-28.8 0-62.4 22.4-123.2 65.6-169.6 48-54.4 118.4-84.8 190.4-84.8h400c51.2 0 102.4 11.2 148.8 32 44.8 20.8 84.8 48 120 84.8 70.4 72 105.6 169.6 97.6 273.6zM902.4 216c-64-68.8-152-107.2-246.4-107.2h-400c-64 0-124.8 27.2-168 75.2s-64 110.4-56 176c6.4 56 33.6 105.6 76.8 144 43.2 36.8 97.6 57.6 155.2 57.6 43.2 0 81.6 22.4 102.4 57.6 62.4 108.8 180.8 172.8 305.6 166.4 81.6-3.2 160-38.4 220.8-97.6 59.2-59.2 96-136 100.8-219.2 0-8 0-14.4 0-22.4 0-84.8-32-166.4-91.2-230.4zM670.4 752c-20.8 1.6-40 0-60.8-3.2-25.6-4.8-48-20.8-59.2-44.8-4.8-11.2-6.4-22.4-6.4-33.6 0-14.4 4.8-28.8 12.8-43.2l195.2-308.8 24-36.8c14.4-22.4 38.4-36.8 65.6-36.8s51.2 12.8 65.6 33.6c8 11.2 14.4 22.4 20.8 33.6 3.2 8 0 16-6.4 20.8s-16 0-20.8-6.4c-4.8-11.2-11.2-20.8-17.6-30.4-9.6-14.4-24-20.8-40-20.8s-32 9.6-41.6 22.4l-24 36.8c-3.2 4.8-3.2 30.4-3.2 44.8 0 28.8 0 56-9.6 72-4.8 6.4-14.4 8-20.8 4.8-4.8-3.2-8-8-8-12.8 0-3.2 1.6-6.4 3.2-8 4.8-6.4 4.8-28.8 4.8-48l-163.2 256c-9.6 14.4-9.6 32-3.2 46.4 6.4 16 20.8 25.6 36.8 28.8 17.6 3.2 36.8 3.2 54.4 3.2 64-3.2 126.4-28.8 174.4-75.2 48-44.8 78.4-105.6 84.8-168 1.6-8 8-14.4 16-12.8s14.4 8 12.8 16c-8 70.4-41.6 137.6-94.4 187.2-51.2 49.6-120 80-192 83.2zM944 430.4c-8 1.6-16-4.8-16-12.8-1.6-9.6-3.2-20.8-4.8-30.4 0-1.6 0-1.6 0-3.2 0-6.4 4.8-12.8 11.2-14.4 8-1.6 16 3.2 17.6 11.2 3.2 11.2 4.8 22.4 6.4 33.6 0 8-4.8 16-14.4 16zM393.6 486.4l110.4-68.8c6.4-4.8 16-1.6 20.8 4.8s1.6 16-4.8 20.8l-110.4 68.8c-8 4.8-12.8 12.8-14.4 22.4s1.6 19.2 8 27.2c6.4 8 12.8 16 17.6 24s9.6 16 16 24c6.4 9.6 17.6 14.4 28.8 14.4s20.8-6.4 27.2-16v0c11.2-16 9.6-38.4 8-60.8s-3.2-46.4 6.4-65.6c3.2-8 12.8-11.2 20.8-6.4 8 3.2 11.2 12.8 6.4 20.8-6.4 12.8-4.8 32-3.2 51.2 0 1.6 0 1.6 0 3.2l76.8-121.6c4.8-8 1.6-16-1.6-20.8-4.8-4.8-12.8-8-20.8-3.2l-14.4 9.6c-6.4 4.8-16 1.6-20.8-4.8s-1.6-16 4.8-20.8l14.4-9.6c19.2-11.2 43.2-9.6 57.6 6.4 16 16 17.6 40 6.4 59.2l-115.2 182.4c0 0 0 0 0 0s0 0 0 0 0 0 0 0c-11.2 17.6-30.4 28.8-51.2 28.8s-41.6-9.6-54.4-25.6c-6.4-8-12.8-17.6-17.6-27.2-4.8-6.4-9.6-14.4-14.4-20.8-9.6-11.2-16-27.2-16-41.6 0-3.2 0-6.4 0-9.6 3.2-19.2 14.4-35.2 28.8-44.8zM576 174.4h-32c-8 0-14.4-6.4-14.4-14.4s6.4-14.4 14.4-14.4h32c8 0 14.4 6.4 14.4 14.4s-6.4 14.4-14.4 14.4zM689.6 259.2l-236.8 148.8c0 0 0 0 0 0s0 0 0 0l-134.4 84.8c-27.2 16-57.6 25.6-88 24-32 0-62.4-11.2-86.4-28.8-43.2-32-72-80-76.8-131.2-3.2-6.4-3.2-14.4-3.2-20.8 0-105.6 86.4-192 192-192h224c8 0 14.4 6.4 14.4 14.4s-6.4 14.4-14.4 14.4h-224c-40 0-76.8 14.4-105.6 40 0 0 0 0 0 0-9.6 9.6-16 33.6-14.4 56 0 6.4 3.2 19.2 11.2 25.6 6.4 4.8 8 14.4 4.8 20.8-4.8 6.4-14.4 8-20.8 4.8-14.4-9.6-22.4-24-25.6-44.8-8 19.2-11.2 40-11.2 60.8 0 6.4 0 12.8 1.6 17.6 4.8 43.2 28.8 83.2 65.6 110.4 41.6 30.4 97.6 32 142.4 3.2l134.4-84.8c20.8-12.8 32-36.8 41.6-60.8 11.2-25.6 22.4-49.6 44.8-59.2 8-3.2 16 1.6 19.2 8 3.2 8-1.6 16-8 19.2-11.2 4.8-19.2 22.4-28.8 43.2-1.6 3.2-1.6 4.8-3.2 8l171.2-107.2c16-9.6 17.6-25.6 14.4-36.8s-12.8-22.4-30.4-22.4h-17.6c-8 0-14.4-6.4-14.4-14.4s6.4-14.4 14.4-14.4h17.6c27.2 0 51.2 17.6 59.2 44.8 6.4 25.6-4.8 54.4-28.8 68.8zM707.2 539.2c-3.2-3.2-4.8-8-4.8-11.2s1.6-6.4 3.2-9.6c3.2-3.2 11.2-14.4 12.8-24 1.6-8 9.6-12.8 17.6-11.2s12.8 9.6 11.2 19.2c-4.8 17.6-17.6 33.6-19.2 35.2-4.8 6.4-14.4 8-20.8 1.6zM174.4 324.8c0 0 0-1.6 0-1.6 1.6-8 8-14.4 16-12.8s20.8-8 25.6-12.8c6.4-6.4 16-6.4 20.8 0 6.4 6.4 6.4 16 0 20.8-3.2 3.2-24 24-49.6 20.8-6.4 0-12.8-8-12.8-14.4z" />
<glyph unicode="&#xe911;" glyph-name="tab9" d="M880.64 816.64c-54.613 54.613-114.347 98.987-168.96 122.88-59.733 27.307-105.813 27.307-131.413 1.707 0 0 0 0 0 0-76.8-76.8-155.307-203.093-201.387-319.147-40.96-105.813-51.2-192.853-29.013-254.293l-112.64-112.64c-37.547-37.547-90.453-58.027-143.36-54.613-8.533 0-17.067 0-25.6-1.707-32.427-6.827-58.027-32.427-64.853-64.853-6.827-27.307 0-54.613 17.067-75.093 13.653-17.067 30.72-27.307 51.2-30.72 0-18.773 5.12-40.96 30.72-64.853 17.067-15.36 37.547-25.6 58.027-25.6 0 0 1.707 0 1.707 0 47.787 1.707 85.333 40.96 85.333 88.747 0 58.027 18.773 107.52 54.613 143.36l121.173 121.173c22.187-10.24 49.493-13.653 80.213-13.653 51.2 0 112.64 13.653 182.613 40.96 116.053 42.667 242.347 121.173 319.147 197.973 0 0 0 0 0 0 56.32 58.027-22.187 197.973-124.587 300.373zM276.48 193.707c-42.667-42.667-64.853-102.4-64.853-168.96 0-29.013-22.187-52.907-51.2-52.907-11.947 0-23.893 5.12-34.133 15.36-23.893 23.893-22.187 37.547-18.773 51.2l5.12 22.187h-23.893c-1.707 0-1.707 0-1.707 0-17.067 0-30.72 6.827-40.96 20.48s-13.653 29.013-10.24 46.080c5.12 18.773 20.48 34.133 39.253 39.253 5.12 1.707 10.24 1.707 15.36 1.707 63.147-3.413 126.293 18.773 170.667 64.853l104.107 104.107c0 0 0-1.707 1.707-1.707 3.413-5.12 8.533-11.947 13.653-15.36 3.413-3.413 6.827-5.12 10.24-8.533l-114.347-117.76zM672.427 349.013c-109.227-42.667-196.267-49.493-245.76-22.187-3.413 1.707-6.827 3.413-8.533 5.12 0 0-1.707 0-1.707 1.707-3.413 1.707-6.827 5.12-8.533 6.827 0 0 0 0 0 0s0 0 0 0c-3.413 3.413-6.827 6.827-10.24 11.947 0 1.707-1.707 1.707-1.707 3.413-3.413 3.413-5.12 8.533-6.827 13.653 0 0 0 0 0 0v1.707c-20.48 51.2-11.947 134.827 27.307 235.52 35.84 92.16 92.16 187.733 150.187 261.12 0-5.12 1.707-10.24 3.413-15.36 0-1.707 1.707-3.413 1.707-5.12 1.707-5.12 3.413-8.533 5.12-13.653 0-1.707 1.707-3.413 1.707-5.12-1.707-5.12 1.707-11.947 3.413-18.773 23.893-52.907 68.267-114.347 122.88-168.96s114.347-98.987 168.96-122.88c6.827-3.413 13.653-5.12 20.48-8.533 1.707 0 3.413-1.707 5.12-1.707 5.12-1.707 10.24-3.413 15.36-5.12 1.707 0 3.413 0 3.413-1.707 5.12-1.707 10.24-1.707 15.36-3.413-73.387-56.32-168.96-112.64-261.12-148.48zM979.627 541.867c-13.653-13.653-47.787-10.24-92.16 8.533-49.493 22.187-105.813 63.147-158.72 116.053-51.2 51.2-92.16 107.52-116.053 158.72-20.48 42.667-23.893 78.507-8.533 92.16 5.12 5.12 15.36 8.533 27.307 8.533 17.067 0 39.253-5.12 64.853-17.067 49.493-22.187 105.813-63.147 158.72-116.053 107.52-109.227 153.6-221.867 124.587-250.88zM711.68 859.307c-15.36 8.533-32.427 6.827-44.373-5.12s-13.653-29.013-5.12-44.373c15.36-27.307 44.373-69.973 93.867-117.76 47.787-47.787 90.453-76.8 117.76-93.867 5.12-3.413 11.947-5.12 18.773-5.12 8.533 0 18.773 3.413 25.6 10.24 11.947 11.947 13.653 29.013 5.12 44.373-15.36 27.307-44.373 69.973-93.867 117.76-47.787 49.493-90.453 78.507-117.76 93.867zM890.88 628.907c-25.6 15.36-64.853 42.667-110.933 87.040-46.080 46.080-73.387 85.333-87.040 110.933l1.707 1.707c25.6-15.36 64.853-42.667 110.933-87.040 44.373-46.080 71.68-85.333 85.333-112.64v0zM655.36 632.32c-15.36 15.36-29.013 32.427-40.96 47.787-13.653 20.48-37.547 32.427-63.147 30.72s-47.787-15.36-59.733-37.547c-11.947-20.48-22.187-42.667-30.72-63.147-3.413-8.533 0-18.773 10.24-22.187 8.533-3.413 18.773 0 22.187 10.24 8.533 20.48 17.067 39.253 29.013 59.733 6.827 11.947 18.773 18.773 30.72 18.773 13.653 0 25.6-5.12 32.427-15.36 11.947-18.773 27.307-35.84 44.373-52.907s35.84-32.427 52.907-44.373c3.413-1.707 6.827-3.413 10.24-3.413 5.12 0 11.947 3.413 15.36 8.533 5.12 8.533 3.413 18.773-5.12 23.893-15.36 10.24-32.427 23.893-47.787 39.253zM662.187 439.467c-87.040-49.493-167.253-64.853-196.267-35.84-8.533 8.533-13.653 23.893-13.653 44.373 0 10.24-8.533 17.067-17.067 17.067v0c-10.24 0-17.067-8.533-17.067-17.067 0-29.013 8.533-52.907 23.893-69.973 17.067-17.067 40.96-23.893 68.267-23.893 51.2 0 114.347 23.893 168.96 54.613 8.533 5.12 11.947 15.36 6.827 23.893s-15.36 11.947-23.893 6.827z" />
</font></defs></svg>